[
    "with a bunch of timers",
    "with time",
    [2, "♬ Rivers in the Desert - Persona 5"],
    [2, "♬ Life Will Change - Persona 5"],
    [2, "♬ Young Guns - China"],
    [2, "♬ Top of the World - Kimbra"],
    [2, "♬ Tomorrow - Jorja Smith"],
    [2, "♬ Shine - The Bar-Kays"],
    [2, "♬ Theme from Cleopatra Jones - Joe Simon"],
    [2, "♬ Re Run - Kamasi Washington"],
    [2, "♬ The Whims of Fate - Persona 5"],
    [2, "♬ Price - Persona 5"],
    [2, "♬ Beneath the Mask - Persona 5"],
    [2, "♬ Last Surprise - Persona 5"],
    [2, "♬ Invitation to Freedom - Persona Q2"],
    [3, "for @Lightning help"],
    [3, "Black Lightning"],
    "Persona Q2",
    "with roo",
    [3, "for vguides :rooCop:"],
    "NookPhone hax",
    [2, "♬ Time (ATLUS Kitajoh Remix) - Persona 3: Dancing Moon Night"],
    [2, "♬ Shadow World - Persona 4 Golden"],
    [2, "♬ Disparate Youth - Santigold"],
    [2, "♬ Whatcha See Is Whatcha Get - The Dramatics"],
    [2, "♬ Let's Take It to the People - Funkadelic"],
    [2, "♬ Apache - Incredible Bongo Band"],
    [2, "♬ Creator - Santigold"],
    "rewrite is the future!",
    [2, "♬ Sweet Thing - Chaka Khan"],
    [2, "♬ Bold Soul Sister - Ike & Tina Turner"]
]
